SeekandHit Interview Task - David Jankoski – conversion_paths
…
half of the conversions take 10 touchpoints to convert

90% of the conversions take <= 26 touchpoints to convert

What is the most common first medium ? This one I picked out of curiosity to see how does the usual customer journey starts.

Code

path_lengths |>
  count(first_touchpoint_medium, sort = T) |>
  mutate(perc = percent_format(accuracy = 0.001)(n / sum(n)))

# A tibble: 23 × 3
   first_touchpoint_medium     n perc   
   <chr>                   <int> <chr>  
 1 referral                15371 43.004%
 2 (none)                   9703 27.147%
 3 cpc                      6511 18.216%
 4 organic                  2282 6.384% 
 5 email                     869 2.431% 
 6 tram                      590 1.651% 
 7 (not set)                 269 0.753% 
 8 s-cpm                      47 0.131% 
 9 search-banner              44 0.123% 
10 button                     12 0.034% 
# ℹ 13 more rows
…
Removal Effects

Code

as_tibble(markov_mod$removal_effects) |>
  arrange(desc(removal_effects_conversion_value))

# A tibble: 40 × 3
   channel_name removal_effects_conversion removal_effects_conversion_value
   <chr>                             <dbl>                            <dbl>
 1 referral                         0.588                          0.594   
 2 (none)                           0.542                          0.559   
 3 cpc                              0.138                          0.118   
 4 organic                          0.0588                         0.0567  
 5 email                            0.0181                         0.0178  
 6 (not set)                        0.0099                         0.0102  
 7 tram                             0.0081                         0.00807 
 8 navbar                           0.0013                         0.00137 
 9 s-cpm                            0.0003                         0.000240
10 button                           0.0002                         0.000196
# ℹ 30 more rows
…
