SeekandHit Interview Task – country
…
about 15% of the countries have less than 500 users - which seems quite low for the whole of 2022

setting ~ 20,000 as limit for revenue would cut off the lower 20th percentile of countries - which seems also good (perhaps even too low given that the upper percentiles are in 100,000s of euros)

Based on this quick checks I am inclined to set a very simple rule revenue > 20,000 . I can go back to revise this later if needed - as well as look more into the lower revenue countries to see if there is something to be said for them separately.

The removed countries seem to be indeed small countries.

Code

by_country |> filter(revenue < 20000)

# A tibble: 63 × 12
   country             users new_users sessions transactions revenue bounce_rate
   <chr>               <dbl>     <dbl>    <dbl>        <dbl>   <dbl>       <dbl>
 1 American Samoa        141       133      205            0      0        0.380
 2 Anguilla              441       363      672           10   7993.       0.317
 3 Benin                1702      1535     2413            9   2688.       0.544
 4 Bhutan                309       279      378            7   4890.       0.571
 5 Botswana             1654      1491     2330           33  14189.       0.400
 6 British Indian Oce…    14        12       16            0      0        0.661
 7 Burkina Faso         1216      1109     1755           25  14804.       0.372
 8 Burundi               769       677     1156           14   7251.       0.533
 9 Caribbean Netherla…   717       614     1029           18   7652.       0.413
10 Central African Re…   506       448      928           13  17920.       0.561
# ℹ 53 more rows
# ℹ 5 more variables: pages_session <dbl>, avg_session_duration <dbl>,
#   ecommerce_conversion_rate <dbl>, revenue_per_transaction <dbl>,
#   new_users_share <dbl>
…
