SeekandHit Interview Task - David Jankoski – country_medium
…
`summarise()` has grouped output by 'country'. You can override using the
`.groups` argument.

Code

free_vs_paid_by_country

# A tibble: 100 × 5
   country   medium sessions mean_conv_rate perc_sessions
   <chr>     <chr>     <dbl>          <dbl>         <dbl>
 1 (not set) free     458865        0.260          0.979 
 2 (not set) paid       9642        0.142          0.0206
 3 Argentina free     234529        0.0106         0.755 
 4 Argentina paid      76111        0.00483        0.245 
 5 Australia free     422838        0.0112         0.846 
 6 Australia paid      77169        0.00520        0.154 
 7 Austria   free     530525        0.0143         0.908 
 8 Austria   paid      53767        0.00323        0.0920
 9 Belgium   free     328700        0.0179         0.828 
10 Belgium   paid      68046        0.00289        0.172 
# ℹ 90 more rows
…
countries_rank_by_low_free_sessions <- free_vs_paid_by_country |> 
  pivot_wider(
    id_cols = country,
    names_from = medium,
    names_sep = "_",
    values_from = c(perc_sessions, mean_conv_rate)
  ) |>
  mutate(
    perc_sessions_free_rank = dense_rank(perc_sessions_free)
  ) |>
  arrange(perc_sessions_free_rank)

countries_rank_by_low_free_sessions

# A tibble: 50 × 6
   country   perc_sessions_free perc_sessions_paid mean_conv_rate_free
   <chr>                  <dbl>              <dbl>               <dbl>
 1 India                  0.719              0.281             0.00444
 2 Argentina              0.755              0.245             0.0106 
 3 Brazil                 0.768              0.232             0.00863
 4 Mexico                 0.769              0.231             0.0531 
 5 Turkey                 0.781              0.219             0.0237 
 6 Malta                  0.783              0.217             0.0252 
 7 Peru                   0.791              0.209             0.0141 
 8 Greece                 0.797              0.203             0.0296 
 9 Thailand               0.797              0.203             0.0234 
10 Malaysia               0.799              0.201             0.00903
# ℹ 40 more rows
# ℹ 2 more variables: mean_conv_rate_paid <dbl>, perc_sessions_free_rank <int>
…
